%YAML 1.1
%TAG !u! tag:unity3d.com,2011:
--- !u!114 &11400000
MonoBehaviour:
  m_ObjectHideFlags: 0
  m_CorrespondingSourceObject: {fileID: 0}
  m_PrefabInstance: {fileID: 0}
  m_PrefabAsset: {fileID: 0}
  m_GameObject: {fileID: 0}
  m_Enabled: 1
  m_EditorHideFlags: 0
  m_Script: {fileID: 11500000, guid: a25a549bf02267f47a90ec44df50e182, type: 3}
  m_Name: Coal
  m_EditorClassIdentifier: 
  name: Coal
  image: {fileID: 21300000, guid: ca19741f46868784b866bcd5f2eea61f, type: 3}
