%YAML 1.1
%TAG !u! tag:unity3d.com,2011:
--- !u!1001 &100100000
Prefab:
  m_ObjectHideFlags: 1
  serializedVersion: 2
  m_Modification:
    m_TransformParent: {fileID: 0}
    m_Modifications: []
    m_RemovedComponents: []
  m_ParentPrefab: {fileID: 0}
  m_RootGameObject: {fileID: 1232282102853698}
  m_IsPrefabParent: 1
--- !u!1 &1095032105996624
GameObject:
  m_ObjectHideFlags: 0
  m_PrefabParentObject: {fileID: 0}
  m_PrefabInternal: {fileID: 100100000}
  serializedVersion: 5
  m_Component:
  - component: {fileID: 4287785937011496}
  - component: {fileID: 212069873800068060}
  - component: {fileID: 114900126449490926}
  - component: {fileID: 60197186353769036}
  m_Layer: 0
  m_Name: Map
  m_TagString: Untagged
  m_Icon: {fileID: 0}
  m_NavMeshLayer: 0
  m_StaticEditorFlags: 0
  m_IsActive: 1
--- !u!1 &1232282102853698
GameObject:
  m_ObjectHideFlags: 0
  m_PrefabParentObject: {fileID: 0}
  m_PrefabInternal: {fileID: 100100000}
  serializedVersion: 5
  m_Component:
  - component: {fileID: 4480322248136814}
  - component: {fileID: 114021349111235848}
  m_Layer: 0
  m_Name: Scene3
  m_TagString: Untagged
  m_Icon: {fileID: 0}
  m_NavMeshLayer: 0
  m_StaticEditorFlags: 0
  m_IsActive: 1
--- !u!1 &1526912056455766
GameObject:
  m_ObjectHideFlags: 0
  m_PrefabParentObject: {fileID: 0}
  m_PrefabInternal: {fileID: 100100000}
  serializedVersion: 5
  m_Component:
  - component: {fileID: 4470157115241640}
  m_Layer: 0
  m_Name: Pivot
  m_TagString: Untagged
  m_Icon: {fileID: 0}
  m_NavMeshLayer: 0
  m_StaticEditorFlags: 0
  m_IsActive: 1
--- !u!1 &1555323858283516
GameObject:
  m_ObjectHideFlags: 0
  m_PrefabParentObject: {fileID: 0}
  m_PrefabInternal: {fileID: 100100000}
  serializedVersion: 5
  m_Component:
  - component: {fileID: 4343140538921638}
  - component: {fileID: 114723183491328850}
  m_Layer: 0
  m_Name: Controller
  m_TagString: Untagged
  m_Icon: {fileID: 0}
  m_NavMeshLayer: 0
  m_StaticEditorFlags: 0
  m_IsActive: 0
--- !u!4 &4287785937011496
Transform:
  m_ObjectHideFlags: 1
  m_PrefabParentObject: {fileID: 0}
  m_PrefabInternal: {fileID: 100100000}
  m_GameObject: {fileID: 1095032105996624}
  m_LocalRotation: {x: -0, y: -0, z: -0, w: 1}
  m_LocalPosition: {x: 0, y: 0, z: 0}
  m_LocalScale: {x: 3, y: 3, z: 1}
  m_Children: []
  m_Father: {fileID: 4480322248136814}
  m_RootOrder: 0
  m_LocalEulerAnglesHint: {x: 0, y: 0, z: 0}
--- !u!4 &4343140538921638
Transform:
  m_ObjectHideFlags: 1
  m_PrefabParentObject: {fileID: 0}
  m_PrefabInternal: {fileID: 100100000}
  m_GameObject: {fileID: 1555323858283516}
  m_LocalRotation: {x: 0, y: 0, z: 0, w: 1}
  m_LocalPosition: {x: 0, y: 0, z: 0}
  m_LocalScale: {x: 1, y: 1, z: 1}
  m_Children: []
  m_Father: {fileID: 4480322248136814}
  m_RootOrder: 2
  m_LocalEulerAnglesHint: {x: 0, y: 0, z: 0}
--- !u!4 &4470157115241640
Transform:
  m_ObjectHideFlags: 1
  m_PrefabParentObject: {fileID: 0}
  m_PrefabInternal: {fileID: 100100000}
  m_GameObject: {fileID: 1526912056455766}
  m_LocalRotation: {x: 0, y: 0, z: 0, w: 1}
  m_LocalPosition: {x: 0, y: 0.1, z: 0}
  m_LocalScale: {x: 1, y: 1, z: 1}
  m_Children: []
  m_Father: {fileID: 4480322248136814}
  m_RootOrder: 1
  m_LocalEulerAnglesHint: {x: 0, y: 0, z: 0}
--- !u!4 &4480322248136814
Transform:
  m_ObjectHideFlags: 1
  m_PrefabParentObject: {fileID: 0}
  m_PrefabInternal: {fileID: 100100000}
  m_GameObject: {fileID: 1232282102853698}
  m_LocalRotation: {x: -0, y: -0, z: -0, w: 1}
  m_LocalPosition: {x: 20.91, y: 28.74, z: -1.32}
  m_LocalScale: {x: 1, y: 1, z: 1}
  m_Children:
  - {fileID: 4287785937011496}
  - {fileID: 4470157115241640}
  - {fileID: 4343140538921638}
  m_Father: {fileID: 0}
  m_RootOrder: 0
  m_LocalEulerAnglesHint: {x: 0, y: 0, z: 0}
--- !u!60 &60197186353769036
PolygonCollider2D:
  m_ObjectHideFlags: 1
  m_PrefabParentObject: {fileID: 0}
  m_PrefabInternal: {fileID: 100100000}
  m_GameObject: {fileID: 1095032105996624}
  m_Enabled: 1
  m_Density: 1
  m_Material: {fileID: 0}
  m_IsTrigger: 0
  m_UsedByEffector: 0
  m_UsedByComposite: 0
  m_Offset: {x: 0, y: 0}
  m_SpriteTilingProperty:
    border: {x: 0, y: 0, z: 0, w: 0}
    pivot: {x: 0.5, y: 0.5}
    oldSize: {x: 6, y: 6}
    newSize: {x: 20.48, y: 20.48}
    adaptiveTilingThreshold: 0.5
    drawMode: 0
    adaptiveTiling: 0
  m_AutoTiling: 0
  m_Points:
    m_Paths:
    - - {x: 1.02, y: -2.6599998}
      - {x: 1.22, y: -2.57}
      - {x: 1.42, y: -2.47}
      - {x: 1.52, y: -2.4099998}
      - {x: 1.67, y: -2.31}
      - {x: 1.75, y: -2.25}
      - {x: 1.9, y: -2.12}
      - {x: 2.1499999, y: -1.87}
      - {x: 2.26, y: -1.75}
      - {x: 2.37, y: -1.5899999}
      - {x: 2.4299998, y: -1.51}
      - {x: 2.53, y: -1.3399999}
      - {x: 2.62, y: -1.15}
      - {x: 2.71, y: -0.91999996}
      - {x: 2.79, y: -0.65999997}
      - {x: 2.82, y: -0.53999996}
      - {x: 2.84, y: -0.45}
      - {x: 2.85, y: -0.29999998}
      - {x: 2.86, y: -0.19}
      - {x: 2.86, y: 0.11}
      - {x: 2.85, y: 0.22}
      - {x: 2.83, y: 0.39}
      - {x: 2.82, y: 0.44}
      - {x: 2.8, y: 0.55}
      - {x: 2.77, y: 0.66999996}
      - {x: 2.71, y: 0.87}
      - {x: 2.6399999, y: 1.05}
      - {x: 2.54, y: 1.27}
      - {x: 2.48, y: 1.39}
      - {x: 2.4299998, y: 1.5}
      - {x: 2.27, y: 1.7199999}
      - {x: 2.12, y: 1.9}
      - {x: 2.01, y: 2.01}
      - {x: 1.89, y: 2.11}
      - {x: 1.74, y: 2.24}
      - {x: 1.5799999, y: 2.35}
      - {x: 1.35, y: 2.48}
      - {x: 1.12, y: 2.59}
      - {x: 0.93, y: 2.6799998}
      - {x: 0.78999996, y: 2.7}
      - {x: 0.65999997, y: 2.74}
      - {x: 0.39999998, y: 2.78}
      - {x: 0.19, y: 2.8}
      - {x: -0.14, y: 2.8}
      - {x: -0.35, y: 2.78}
      - {x: -0.48, y: 2.76}
      - {x: -0.66999996, y: 2.72}
      - {x: -0.9, y: 2.6699998}
      - {x: -1.15, y: 2.58}
      - {x: -1.26, y: 2.53}
      - {x: -1.3399999, y: 2.49}
      - {x: -1.39, y: 2.46}
      - {x: -1.55, y: 2.37}
      - {x: -1.74, y: 2.24}
      - {x: -1.9, y: 2.1}
      - {x: -2.1399999, y: 1.86}
      - {x: -2.32, y: 1.65}
      - {x: -2.46, y: 1.4399999}
      - {x: -2.55, y: 1.31}
      - {x: -2.61, y: 1.2099999}
      - {x: -2.6699998, y: 1.06}
      - {x: -2.73, y: 0.89}
      - {x: -2.75, y: 0.83}
      - {x: -2.78, y: 0.72999996}
      - {x: -2.82, y: 0.57}
      - {x: -2.84, y: 0.45999998}
      - {x: -2.86, y: 0.32999998}
      - {x: -2.87, y: 0.22999999}
      - {x: -2.8799999, y: 0.01}
      - {x: -2.8799999, y: -0.13}
      - {x: -2.87, y: -0.29999998}
      - {x: -2.85, y: -0.48}
      - {x: -2.83, y: -0.62}
      - {x: -2.79, y: -0.77}
      - {x: -2.69, y: -1.03}
      - {x: -2.62, y: -1.1899999}
      - {x: -2.47, y: -1.48}
      - {x: -2.27, y: -1.76}
      - {x: -2.1599998, y: -1.89}
      - {x: -1.92, y: -2.12}
      - {x: -1.81, y: -2.22}
      - {x: -1.78, y: -2.25}
      - {x: -1.68, y: -2.32}
      - {x: -1.4599999, y: -2.46}
      - {x: -1.37, y: -2.51}
      - {x: -1.15, y: -2.61}
      - {x: -0.94, y: -2.69}
      - {x: -0.65999997, y: -2.78}
      - {x: -0.55, y: -2.79}
      - {x: -0.44, y: -2.81}
      - {x: -0.26999998, y: -2.83}
      - {x: -0.12, y: -2.84}
      - {x: 0.17999999, y: -2.84}
      - {x: 0.29999998, y: -2.83}
      - {x: 0.51, y: -2.8}
      - {x: 0.81, y: -2.74}
--- !u!114 &114021349111235848
MonoBehaviour:
  m_ObjectHideFlags: 1
  m_PrefabParentObject: {fileID: 0}
  m_PrefabInternal: {fileID: 100100000}
  m_GameObject: {fileID: 1232282102853698}
  m_Enabled: 0
  m_EditorHideFlags: 0
  m_Script: {fileID: 11500000, guid: 2d9e1af2a4bb38d42af3abc650f755bc, type: 3}
  m_Name: 
  m_EditorClassIdentifier: 
  cloudsCount: 7
  cloudRange:
    min: 1
    max: 2
  speedRange:
    min: 8
    max: 16
  cloudDistance: 6
  scale: 0.7
  zOffset: -4
  sprites:
  - {fileID: 21300000, guid: 68ea0928e83390148b64ae740ae298a4, type: 3}
  - {fileID: 21300000, guid: 4348314cfd85ac6438bc264c0e13ff53, type: 3}
  - {fileID: 21300000, guid: 30e16970c2edb1c4c8c51f5c18068689, type: 3}
  - {fileID: 21300000, guid: 00ad5f4d566cc1b458c4ca58d1220e75, type: 3}
--- !u!114 &114723183491328850
MonoBehaviour:
  m_ObjectHideFlags: 1
  m_PrefabParentObject: {fileID: 0}
  m_PrefabInternal: {fileID: 100100000}
  m_GameObject: {fileID: 1555323858283516}
  m_Enabled: 1
  m_EditorHideFlags: 0
  m_Script: {fileID: 11500000, guid: 2be3db4e39c57fe4bb5ba035f2ed74d7, type: 3}
  m_Name: 
  m_EditorClassIdentifier: 
  drawVisuals: 1
  visualScale: 1
  lineWidth: 1
  minVertsDistance: 0.25
  cutSize: 0.35
  zPosition: 0
  color: {r: 1, g: 1, b: 1, a: 1}
  destructionType: 2
  polygonType: 1
  polygonSize: 2
  polygonEdgeCount: 26
  modifierSize: {x: 3.5, y: 3.5}
  modifierRotation: 0
  randomRotation: 0
  modifierID: 0
  randomModifierID: 1
  modifierTextures:
  - {fileID: 2800000, guid: d92156dbcb626dc4e97165ec9b755838, type: 3}
  - {fileID: 2800000, guid: 5a9780fe45c2bb64ca93e70e00a0c13a, type: 3}
  - {fileID: 2800000, guid: 15e82a91f9cc03e4d826fe0e4d712c3f, type: 3}
  - {fileID: 2800000, guid: 1d281e0a6413d444da4c63e9aaea17b1, type: 3}
  - {fileID: 2800000, guid: 797356042f77204438ff9437eb383ec8, type: 3}
  - {fileID: 2800000, guid: 19c333787a85c7f4d9aa2bb9e947729a, type: 3}
  - {fileID: 2800000, guid: 23268969601681440950611ab3d87afc, type: 3}
  - {fileID: 2800000, guid: 29351a0f9199f8e439e919d39c242a98, type: 3}
--- !u!114 &114900126449490926
MonoBehaviour:
  m_ObjectHideFlags: 1
  m_PrefabParentObject: {fileID: 0}
  m_PrefabInternal: {fileID: 100100000}
  m_GameObject: {fileID: 1095032105996624}
  m_Enabled: 1
  m_EditorHideFlags: 0
  m_Script: {fileID: 11500000, guid: 62b06ecd429b51c4688fa0f1fcb58e3f, type: 3}
  m_Name: 
  m_EditorClassIdentifier: 
  textureType: 0
  destructionLayer: 0
  centerOfMass: 0
  enableSplit: 0
  splitLimit: 0
  splitCount: 0
  maxSplits: 10
  renderTexture: {fileID: 0}
  spriteRenderer: {fileID: 0}
  outputSprite: {fileID: 0}
  outputMaterial: {fileID: 0}
  outputTexture: {fileID: 0}
  originalSprite: {fileID: 0}
  originalSpriteMaterial: {fileID: 0}
  modifiersAdded: 0
  replaceSprite: 0
  initialized: 0
  eraseMeshes: []
  anchorColliders: []
--- !u!212 &212069873800068060
SpriteRenderer:
  m_ObjectHideFlags: 1
  m_PrefabParentObject: {fileID: 0}
  m_PrefabInternal: {fileID: 100100000}
  m_GameObject: {fileID: 1095032105996624}
  m_Enabled: 1
  m_CastShadows: 0
  m_ReceiveShadows: 0
  m_MotionVectors: 1
  m_LightProbeUsage: 1
  m_ReflectionProbeUsage: 1
  m_Materials:
  - {fileID: 10754, guid: 0000000000000000f000000000000000, type: 0}
  m_StaticBatchInfo:
    firstSubMesh: 0
    subMeshCount: 0
  m_StaticBatchRoot: {fileID: 0}
  m_ProbeAnchor: {fileID: 0}
  m_LightProbeVolumeOverride: {fileID: 0}
  m_ScaleInLightmap: 1
  m_PreserveUVs: 0
  m_IgnoreNormalsForChartDetection: 0
  m_ImportantGI: 0
  m_SelectedEditorRenderState: 0
  m_MinimumChartSize: 4
  m_AutoUVMaxDistance: 0.5
  m_AutoUVMaxAngle: 89
  m_LightmapParameters: {fileID: 0}
  m_SortingLayerID: 0
  m_SortingLayer: 0
  m_SortingOrder: 0
  m_Sprite: {fileID: 21300000, guid: a421e976515fad045852708687b36b61, type: 3}
  m_Color: {r: 1, g: 1, b: 1, a: 1}
  m_FlipX: 0
  m_FlipY: 0
  m_DrawMode: 0
  m_Size: {x: 20.48, y: 20.48}
  m_AdaptiveModeThreshold: 0.5
  m_SpriteTileMode: 0
  m_WasSpriteAssigned: 1
  m_MaskInteraction: 0
